Analiza zanieczyszczenia powietrza w Polsce
…
#standaryzowanie danych
Dane_std <- Dane %>% mutate(across(where(is.numeric), scale))
print(Dane_std)

## # A tibble: 380 × 9
##    Kod_powiat Wskaznik[,1] Liczba_pojazdów[,1] Gm_tereny_zieleni[,1]
##    <chr>             <dbl>               <dbl>                 <dbl>
##  1 0201            -0.0816              -0.176                -0.342
##  2 0202            -0.673               -0.104                -0.106
##  3 0203            -0.595               -0.242                -0.106
##  4 0204            -0.706               -0.510                -0.460
##  5 0205            -1.11                -0.378                -0.224
##  6 0206            -0.902               -0.345                -0.342
##  7 0207            -1.14                -0.520                -0.342
##  8 0208             0.0162               0.460                -0.342
##  9 0209            -0.321               -0.357                -0.342
## 10 0210             0.148               -0.370                -0.342
## # ℹ 370 more rows
## # ℹ 5 more variables: Grunty_lesne <dbl[,1]>, Pow_powiatu <dbl[,1]>,
## #   Ludność_na_km2 <dbl[,1]>, Srednie_wyn <dbl[,1]>, Drogi <dbl[,1]>
…
